…
## # A tibble: 2 x 2
##   carat     n
##   <dbl> <int>
## 1  0.99    23
## 2  1.00  1558

23 diamonds are 0.99 carat. In comparison, there are over 1,558 diamonds that are 1 carat.

Maybe 0.99 carat diamonds are more likely to be rounded up.

diamonds %>% 
  filter(carat == 0.99) %>% 
  select(carat, cut, price, x, y, z)

## # A tibble: 23 x 6
##    carat       cut price     x     y     z
##    <dbl>     <ord> <int> <dbl> <dbl> <dbl>
##  1  0.99      Fair  2811  6.21  6.06  4.18
##  2  0.99      Fair  2812  6.72  6.67  3.68
##  3  0.99      Fair  2949  6.57  6.50  3.79
##  4  0.99      Fair  3337  6.42  6.34  3.87
##  5  0.99      Fair  3593  5.94  5.80  4.20
##  6  0.99 Very Good  4002  6.44  6.49  3.90
##  7  0.99      Good  4052  6.36  6.43  4.05
##  8  0.99   Premium  4075  6.45  6.38  3.89
##  9  0.99     Ideal  4763  6.40  6.42  3.96
## 10  0.99 Very Good  4780  6.30  6.33  3.90
## # ... with 13 more rows
…
geom_quasirandom spaces dots using a van der Corput sequence or Tukey texturing. In comparison, geom_beeswarm uses the beeswarm library.

7.5.2.1 Exercises

How could you rescale the count dataset above to more clearly show the distribution of cut within colour, or colour within cut?

diamonds %>% 
  count(cut, color)

## # A tibble: 35 x 3
##      cut color     n
##    <ord> <ord> <int>
##  1  Fair     D   163
##  2  Fair     E   224
##  3  Fair     F   312
##  4  Fair     G   314
##  5  Fair     H   303
##  6  Fair     I   175
##  7  Fair     J   119
##  8  Good     D   662
##  9  Good     E   933
## 10  Good     F   909
## # ... with 25 more rows
…
