…
year, month, day, and hour.

We know that some days of the year are special, and fewer people than usual fly on them. How might you represent that data as a data frame? What would be the primary keys of that table? How would it connect to the existing tables?

You would have date and name variables. The primary key of this table would be date. It would match to year, month, and day in other tables such as flights.

13.3.1 Exercises

Add a surrogate key to flights.

flights %>% 
  arrange(year, month, day, sched_dep_time) %>% 
  mutate(flight_id = row_number())

## # A tibble: 336,776 x 20
##     year month   day dep_time sched_dep_time dep_delay arr_time
##    <int> <int> <int>    <int>          <int>     <dbl>    <int>
##  1  2013     1     1      517            515         2      830
##  2  2013     1     1      533            529         4      850
##  3  2013     1     1      542            540         2      923
##  4  2013     1     1      544            545        -1     1004
##  5  2013     1     1      554            558        -4      740
##  6  2013     1     1      559            559         0      702
##  7  2013     1     1      554            600        -6      812
##  8  2013     1     1      555            600        -5      913
##  9  2013     1     1      557            600        -3      709
## 10  2013     1     1      557            600        -3      838
## # ... with 336,766 more rows, and 13 more variables: sched_arr_time <int>,
## #   arr_delay <dbl>, carrier <chr>, flight <int>, tailnum <chr>,
## #   origin <chr>, dest <chr>, air_time <dbl>, distance <dbl>, hour <dbl>,
## #   minute <dbl>, time_hour <dttm>, flight_id <int>
…
Add the location of the origin and destination (i.e.the lat and lon) to flights.

flights %>% 
  left_join(airports, c("origin" = "faa")) %>% 
  left_join(airports, c("dest" = "faa")) %>% 
  rename(lat_origin = lat.x, lon_origin = lon.x) %>%
  rename(lat_dest = lat.y, lon_dest = lon.y) %>% 
  select(-contains("."))

## # A tibble: 336,776 x 23
##     year month   day dep_time sched_dep_time dep_delay arr_time
##    <int> <int> <int>    <int>          <int>     <dbl>    <int>
##  1  2013     1     1      517            515         2      830
##  2  2013     1     1      533            529         4      850
##  3  2013     1     1      542            540         2      923
##  4  2013     1     1      544            545        -1     1004
##  5  2013     1     1      554            600        -6      812
##  6  2013     1     1      554            558        -4      740
##  7  2013     1     1      555            600        -5      913
##  8  2013     1     1      557            600        -3      709
##  9  2013     1     1      557            600        -3      838
## 10  2013     1     1      558            600        -2      753
## # ... with 336,766 more rows, and 16 more variables: sched_arr_time <int>,
## #   arr_delay <dbl>, carrier <chr>, flight <int>, tailnum <chr>,
## #   origin <chr>, dest <chr>, air_time <dbl>, distance <dbl>, hour <dbl>,
## #   minute <dbl>, time_hour <dttm>, lat_origin <dbl>, lon_origin <dbl>,
## #   lat_dest <dbl>, lon_dest <dbl>
…
13.5.1 Exercises

What does it mean for a flight to have a missing tailnum? What do the tail numbers that dont have a matching record in planes have in common? (Hint: one variable explains ~90% of the problems.)

flights %>% 
  anti_join(planes, by = "tailnum")

## # A tibble: 52,606 x 19
##     year month   day dep_time sched_dep_time dep_delay arr_time
##    <int> <int> <int>    <int>          <int>     <dbl>    <int>
##  1  2013     1     1      558            600        -2      753
##  2  2013     1     1      559            600        -1      941
##  3  2013     1     1      600            600         0      837
##  4  2013     1     1      602            605        -3      821
##  5  2013     1     1      608            600         8      807
##  6  2013     1     1      611            600        11      945
##  7  2013     1     1      623            610        13      920
##  8  2013     1     1      624            630        -6      840
##  9  2013     1     1      628            630        -2     1137
## 10  2013     1     1      629            630        -1      824
## # ... with 52,596 more rows, and 12 more variables: sched_arr_time <int>,
## #   arr_delay <dbl>, carrier <chr>, flight <int>, tailnum <chr>,
## #   origin <chr>, dest <chr>, air_time <dbl>, distance <dbl>, hour <dbl>,
## #   minute <dbl>, time_hour <dttm>
…
Specifically, about 90% of flights.

Filter flights to only show flights with planes that have flown at least 100 flights.

flights_100 <- flights %>% 
  group_by(tailnum) %>% 
  count() %>% 
  filter(n >= 100 & tailnum != "NA") %>% 
  arrange(desc(n))

flights %>% 
  semi_join(flights_100, by = "tailnum")

## # A tibble: 228,390 x 19
##     year month   day dep_time sched_dep_time dep_delay arr_time
##    <int> <int> <int>    <int>          <int>     <dbl>    <int>
##  1  2013     1     1      517            515         2      830
##  2  2013     1     1      533            529         4      850
##  3  2013     1     1      544            545        -1     1004
##  4  2013     1     1      554            558        -4      740
##  5  2013     1     1      555            600        -5      913
##  6  2013     1     1      557            600        -3      709
##  7  2013     1     1      557            600        -3      838
##  8  2013     1     1      558            600        -2      849
##  9  2013     1     1      558            600        -2      853
## 10  2013     1     1      558            600        -2      923
## # ... with 228,380 more rows, and 12 more variables: sched_arr_time <int>,
## #   arr_delay <dbl>, carrier <chr>, flight <int>, tailnum <chr>,
## #   origin <chr>, dest <chr>, air_time <dbl>, distance <dbl>, hour <dbl>,
## #   minute <dbl>, time_hour <dttm>

Combine fueleconomy::vehicles and fueleconomy::common to find only the records for the most common models.

fueleconomy::vehicles %>% 
  semi_join(fueleconomy::common, by = c("make", "model"))

## # A tibble: 14,531 x 12
##       id  make   model  year           class           trans
##    <int> <chr>   <chr> <int>           <chr>           <chr>
##  1  1833 Acura Integra  1986 Subcompact Cars Automatic 4-spd
##  2  1834 Acura Integra  1986 Subcompact Cars    Manual 5-spd
##  3  3037 Acura Integra  1987 Subcompact Cars Automatic 4-spd
##  4  3038 Acura Integra  1987 Subcompact Cars    Manual 5-spd
##  5  4183 Acura Integra  1988 Subcompact Cars Automatic 4-spd
##  6  4184 Acura Integra  1988 Subcompact Cars    Manual 5-spd
##  7  5303 Acura Integra  1989 Subcompact Cars Automatic 4-spd
##  8  5304 Acura Integra  1989 Subcompact Cars    Manual 5-spd
##  9  6442 Acura Integra  1990 Subcompact Cars Automatic 4-spd
## 10  6443 Acura Integra  1990 Subcompact Cars    Manual 5-spd
## # ... with 14,521 more rows, and 6 more variables: drive <chr>, cyl <int>,
## #   displ <dbl>, fuel <chr>, hwy <int>, cty <int>

Find the 48 hours (over the course of the whole year) that have the worst delays. Cross-reference it with the weather data. Can you see any patterns?

What does anti_join(flights, airports, by = c("dest" = "faa")) tell you? What does anti_join(airports, flights, by = c("faa" = "dest")) tell you?

anti_join(flights, airports, by = c("dest" = "faa"))

## # A tibble: 7,602 x 19
##     year month   day dep_time sched_dep_time dep_delay arr_time
##    <int> <int> <int>    <int>          <int>     <dbl>    <int>
##  1  2013     1     1      544            545        -1     1004
##  2  2013     1     1      615            615         0     1039
##  3  2013     1     1      628            630        -2     1137
##  4  2013     1     1      701            700         1     1123
##  5  2013     1     1      711            715        -4     1151
##  6  2013     1     1      820            820         0     1254
##  7  2013     1     1      820            820         0     1249
##  8  2013     1     1      840            845        -5     1311
##  9  2013     1     1      909            810        59     1331
## 10  2013     1     1      913            918        -5     1346
## # ... with 7,592 more rows, and 12 more variables: sched_arr_time <int>,
## #   arr_delay <dbl>, carrier <chr>, flight <int>, tailnum <chr>,
## #   origin <chr>, dest <chr>, air_time <dbl>, distance <dbl>, hour <dbl>,
## #   minute <dbl>, time_hour <dttm>

The destination of these flights is unknown (i.e., the airport does not appear in airports). They could be international flights.

anti_join(airports, flights, by = c("faa" = "dest"))

## # A tibble: 1,357 x 8
##      faa                           name      lat        lon   alt    tz
##    <chr>                          <chr>    <dbl>      <dbl> <int> <dbl>
##  1   04G              Lansdowne Airport 41.13047  -80.61958  1044    -5
##  2   06A  Moton Field Municipal Airport 32.46057  -85.68003   264    -6
##  3   06C            Schaumburg Regional 41.98934  -88.10124   801    -6
##  4   06N                Randall Airport 41.43191  -74.39156   523    -5
##  5   09J          Jekyll Island Airport 31.07447  -81.42778    11    -5
##  6   0A9 Elizabethton Municipal Airport 36.37122  -82.17342  1593    -5
##  7   0G6        Williams County Airport 41.46731  -84.50678   730    -5
##  8   0G7  Finger Lakes Regional Airport 42.88356  -76.78123   492    -5
##  9   0P2   Shoestring Aviation Airfield 39.79482  -76.64719  1000    -5
## 10   0S9          Jefferson County Intl 48.05381 -122.81064   108    -8
## # ... with 1,347 more rows, and 2 more variables: dst <chr>, tzone <chr>

These are the destination airports for all flights that departed NYC in 2013.

You might expect that theres an implicit relationship between plane and airline, because each plane is flown by a single airline. Confirm or reject this hypothesis using the tools youve learned above.

flights_carrier <- flights %>% 
  group_by(tailnum, carrier) %>% 
  count() %>% 
  arrange(tailnum)
flights_carrier

## # A tibble: 4,067 x 3
## # Groups:   tailnum, carrier [4,067]
##    tailnum carrier     n
##      <chr>   <chr> <int>
##  1  D942DN      DL     4
##  2  N0EGMQ      MQ   371
##  3  N10156      EV   153
##  4  N102UW      US    48
##  5  N103US      US    46
##  6  N104UW      US    47
##  7  N10575      EV   289
##  8  N105UW      US    45
##  9  N107US      US    41
## 10  N108UW      US    60
## # ... with 4,057 more rows
…
