…
Were operated by United, American, or Delta

Departed in summer (July, August, and September)

Arrived more than two hours late, but didnt leave late

Were delayed by at least an hour, but made up over 30 minutes in flight

Departed between midnight and 6am (inclusive)

Had an arrival delay of two or more hours:

filter(flights, arr_delay >= 120)

## # A tibble: 10,200 x 19
##     year month   day dep_ sche dep_ arr_ sche arr_ carr flig tail
##    <int> <int> <int> <int> <int> <dbl> <int> <int> <dbl> <chr> <int> <chr>
##  1  2013     1     1   811   630 101    1047   830   137 MQ     4576 N531
##  2  2013     1     1   848  1835 853    1001  1950   851 MQ     3944 N942
##  3  2013     1     1   957   733 144    1056   853   123 UA      856 N534
##  4  2013     1     1  1114   900 134    1447  1222   145 UA     1086 N765
##  5  2013     1     1  1505  1310 115    1638  1431   127 EV     4497 N179
##  6  2013     1     1  1525  1340 105    1831  1626   125 B6      525 N231
##  7  2013     1     1  1549  1445  64.0  1912  1656   136 EV     4181 N211
##  8  2013     1     1  1558  1359 119    1718  1515   123 EV     5712 N826
##  9  2013     1     1  1732  1630  62.0  2028  1825   123 EV     4092 N169
## 10  2013     1     1  1803  1620 103    2008  1750   138 MQ     4622 N504
## # ... with 10,190 more rows, and 7 more variables: origin <chr>, dest
## #   <chr>, air_time <dbl>, distance <dbl>, hour <dbl>, minute <dbl>,
## #   time_hour <dttm>

Flew to Houston (IAH or HOU):

filter(flights, dest %in% c("IAH", "HOU"))

## # A tibble: 9,313 x 19
##     year month   day dep_t sched dep_de arr_ sche arr_de carr flig
##    <int> <int> <int>  <int>  <int>   <dbl> <int> <int>   <dbl> <chr> <int>
##  1  2013     1     1    517    515    2.00   830   819   11.0  UA     1545
##  2  2013     1     1    533    529    4.00   850   830   20.0  UA     1714
##  3  2013     1     1    623    627 -  4.00   933   932    1.00 UA      496
##  4  2013     1     1    728    732 -  4.00  1041  1038    3.00 UA      473
##  5  2013     1     1    739    739    0     1104  1038   26.0  UA     1479
##  6  2013     1     1    908    908    0     1228  1219    9.00 UA     1220
##  7  2013     1     1   1028   1026    2.00  1350  1339   11.0  UA     1004
##  8  2013     1     1   1044   1045 -  1.00  1352  1351    1.00 UA      455
##  9  2013     1     1   1114    900  134     1447  1222  145    UA     1086
## 10  2013     1     1   1205   1200    5.00  1503  1505 -  2.00 UA     1461
## # ... with 9,303 more rows, and 8 more variables: tailnum <chr>, origin
## #   <chr>, dest <chr>, air_time <dbl>, distance <dbl>, hour <dbl>, minute
## #   <dbl>, time_hour <dttm>

Were operated by United, American, or Delta:

filter(flights, carrier %in% c("UA", "AA", "DL"))

## # A tibble: 139,504 x 19
##     year month   day dep_t sched_ dep_d arr_ sched arr_d carr flig
##    <int> <int> <int>  <int>   <int>  <dbl> <int>  <int>  <dbl> <chr> <int>
##  1  2013     1     1    517     515   2.00   830    819  11.0  UA     1545
##  2  2013     1     1    533     529   4.00   850    830  20.0  UA     1714
##  3  2013     1     1    542     540   2.00   923    850  33.0  AA     1141
##  4  2013     1     1    554     600  -6.00   812    837 -25.0  DL      461
##  5  2013     1     1    554     558  -4.00   740    728  12.0  UA     1696
##  6  2013     1     1    558     600  -2.00   753    745   8.00 AA      301
##  7  2013     1     1    558     600  -2.00   924    917   7.00 UA      194
##  8  2013     1     1    558     600  -2.00   923    937 -14.0  UA     1124
##  9  2013     1     1    559     600  -1.00   941    910  31.0  AA      707
## 10  2013     1     1    559     600  -1.00   854    902 - 8.00 UA     1187
## # ... with 139,494 more rows, and 8 more variables: tailnum <chr>, origin
## #   <chr>, dest <chr>, air_time <dbl>, distance <dbl>, hour <dbl>, minute
## #   <dbl>, time_hour <dttm>

(To find the two letter carrier abbreviations, see airlines.)

Departed in summer (July, August, and September):

filter(flights, month %in% c(7, 8, 9))

## # A tibble: 86,326 x 19
##     year month   day dep_t sched_ dep_de arr_ sched arr_ carr flig
##    <int> <int> <int>  <int>   <int>   <dbl> <int>  <int> <dbl> <chr> <int>
##  1  2013     7     1      1    2029  212      236   2359   157 B6      915
##  2  2013     7     1      2    2359    3.00   344    344     0 B6     1503
##  3  2013     7     1     29    2245  104      151      1   110 B6      234
##  4  2013     7     1     43    2130  193      322     14   188 B6     1371
##  5  2013     7     1     44    2150  174      300    100   120 AA      185
##  6  2013     7     1     46    2051  235      304   2358   186 B6      165
##  7  2013     7     1     48    2001  287      308   2305   243 VX      415
##  8  2013     7     1     58    2155  183      335     43   172 B6      425
##  9  2013     7     1    100    2146  194      327     30   177 B6     1183
## 10  2013     7     1    100    2245  135      337    135   122 B6      623
## # ... with 86,316 more rows, and 8 more variables: tailnum <chr>, origin
## #   <chr>, dest <chr>, air_time <dbl>, distance <dbl>, hour <dbl>, minute
## #   <dbl>, time_hour <dttm>

Arrived more than two hours late, but didnt leave late:

filter(flights, arr_delay >= 120 & dep_delay <= 0)

## # A tibble: 29 x 19
##     year month   day dep_ sche dep_ arr_ sche arr_ carr flig tail
##    <int> <int> <int> <int> <int> <dbl> <int> <int> <dbl> <chr> <int> <chr>
##  1  2013     1    27  1419  1420 -1.00  1754  1550   124 MQ     3728 N1EA
##  2  2013    10     7  1350  1350  0     1736  1526   130 EV     5181 N611
##  3  2013    10     7  1357  1359 -2.00  1858  1654   124 AA     1151 N3CM
##  4  2013    10    16   657   700 -3.00  1258  1056   122 B6        3 N703
##  5  2013    11     1   658   700 -2.00  1329  1015   194 VX      399 N629
##  6  2013     3    18  1844  1847 -3.00    39  2219   140 UA      389 N560
##  7  2013     4    17  1635  1640 -5.00  2049  1845   124 MQ     4540 N721
##  8  2013     4    18   558   600 -2.00  1149   850   179 AA      707 N3EX
##  9  2013     4    18   655   700 -5.00  1213   950   143 AA     2083 N565
## 10  2013     5    22  1827  1830 -3.00  2217  2010   127 MQ     4674 N518
## # ... with 19 more rows, and 7 more variables: origin <chr>, dest <chr>,
## #   air_time <dbl>, distance <dbl>, hour <dbl>, minute <dbl>, time_hour
## #   <dttm>

Were delayed by at least an hour, but made up over 30 minutes in flight:

filter(flights, dep_delay >= 60  & dep_delay - arr_delay > 30)

## # A tibble: 1,844 x 19
##     year month   day dep_t sched_ dep_d arr_ sched arr_d carr flig
##    <int> <int> <int>  <int>   <int>  <dbl> <int>  <int>  <dbl> <chr> <int>
##  1  2013     1     1   2205    1720  285      46   2040 246    AA     1999
##  2  2013     1     1   2326    2130  116     131     18  73.0  B6      199
##  3  2013     1     3   1503    1221  162    1803   1555 128    UA      551
##  4  2013     1     3   1839    1700   99.0  2056   1950  66.0  AA      575
##  5  2013     1     3   1850    1745   65.0  2148   2120  28.0  AA      177
##  6  2013     1     3   1941    1759  102    2246   2139  67.0  UA      979
##  7  2013     1     3   1950    1845   65.0  2228   2227   1.00 B6       91
##  8  2013     1     3   2015    1915   60.0  2135   2111  24.0  9E     3525
##  9  2013     1     3   2257    2000  177      45   2224 141    9E     3439
## 10  2013     1     4   1917    1700  137    2135   1950 105    AA      575
## # ... with 1,834 more rows, and 8 more variables: tailnum <chr>, origin
## #   <chr>, dest <chr>, air_time <dbl>, distance <dbl>, hour <dbl>, minute
## #   <dbl>, time_hour <dttm>

Departed between midnight and 6am (inclusive):

filter(flights, dep_time <= 600 | dep_time == 2400)

## # A tibble: 9,373 x 19
##     year month   day dep_t sched_ dep_d arr_ sched arr_d carr flig
##    <int> <int> <int>  <int>   <int>  <dbl> <int>  <int>  <dbl> <chr> <int>
##  1  2013     1     1    517     515   2.00   830    819  11.0  UA     1545
##  2  2013     1     1    533     529   4.00   850    830  20.0  UA     1714
##  3  2013     1     1    542     540   2.00   923    850  33.0  AA     1141
##  4  2013     1     1    544     545  -1.00  1004   1022 -18.0  B6      725
##  5  2013     1     1    554     600  -6.00   812    837 -25.0  DL      461
##  6  2013     1     1    554     558  -4.00   740    728  12.0  UA     1696
##  7  2013     1     1    555     600  -5.00   913    854  19.0  B6      507
##  8  2013     1     1    557     600  -3.00   709    723 -14.0  EV     5708
##  9  2013     1     1    557     600  -3.00   838    846 - 8.00 B6       79
## 10  2013     1     1    558     600  -2.00   753    745   8.00 AA      301
## # ... with 9,363 more rows, and 8 more variables: tailnum <chr>, origin
## #   <chr>, dest <chr>, air_time <dbl>, distance <dbl>, hour <dbl>, minute
## #   <dbl>, time_hour <dttm>

Another useful dplyr filtering helper is between(). What does it do? Can you use it to simplify the code needed to answer the previous challenges?

It is a shortcut for finding values that fall within a specified range:

filter(flights, between(month, 7, 9))

## # A tibble: 86,326 x 19
##     year month   day dep_t sched_ dep_de arr_ sched arr_ carr flig
##    <int> <int> <int>  <int>   <int>   <dbl> <int>  <int> <dbl> <chr> <int>
##  1  2013     7     1      1    2029  212      236   2359   157 B6      915
##  2  2013     7     1      2    2359    3.00   344    344     0 B6     1503
##  3  2013     7     1     29    2245  104      151      1   110 B6      234
##  4  2013     7     1     43    2130  193      322     14   188 B6     1371
##  5  2013     7     1     44    2150  174      300    100   120 AA      185
##  6  2013     7     1     46    2051  235      304   2358   186 B6      165
##  7  2013     7     1     48    2001  287      308   2305   243 VX      415
##  8  2013     7     1     58    2155  183      335     43   172 B6      425
##  9  2013     7     1    100    2146  194      327     30   177 B6     1183
## 10  2013     7     1    100    2245  135      337    135   122 B6      623
## # ... with 86,316 more rows, and 8 more variables: tailnum <chr>, origin
## #   <chr>, dest <chr>, air_time <dbl>, distance <dbl>, hour <dbl>, minute
## #   <dbl>, time_hour <dttm>

How many flights have a missing dep_time? What other variables are missing? What might these rows represent?

filter(flights, is.na(dep_time))

## # A tibble: 8,255 x 19
##     year month   day dep_ sche dep_ arr_ sche arr_ carr flig tail
##    <int> <int> <int> <int> <int> <dbl> <int> <int> <dbl> <chr> <int> <chr>
##  1  2013     1     1    NA  1630    NA    NA  1815    NA EV     4308 N181
##  2  2013     1     1    NA  1935    NA    NA  2240    NA AA      791 N3EH
##  3  2013     1     1    NA  1500    NA    NA  1825    NA AA     1925 N3EV
##  4  2013     1     1    NA   600    NA    NA   901    NA B6      125 N618
##  5  2013     1     2    NA  1540    NA    NA  1747    NA EV     4352 N105
##  6  2013     1     2    NA  1620    NA    NA  1746    NA EV     4406 N139
##  7  2013     1     2    NA  1355    NA    NA  1459    NA EV     4434 N105
##  8  2013     1     2    NA  1420    NA    NA  1644    NA EV     4935 N759
##  9  2013     1     2    NA  1321    NA    NA  1536    NA EV     3849 N135
## 10  2013     1     2    NA  1545    NA    NA  1910    NA AA      133 <NA> 
## # ... with 8,245 more rows, and 7 more variables: origin <chr>, dest
## #   <chr>, air_time <dbl>, distance <dbl>, hour <dbl>, minute <dbl>,
## #   time_hour <dttm>
…
View(filter(flights, is.na(dep_time)))

dep_delay, arr_time, arr_delay, and air_time are also missing. These flights were most likely cancelled.

Why is NA ^ 0 not missing? Why is NA | TRUE not missing? Why is FALSE & NA not missing? Can you figure out the general rule? (NA * 0 is a tricky counterexample!)

See Jeffrey Arnolds explanation.

5.3.1 Exercises

How could you use arrange() to sort all missing values to the start? (Hint: use is.na()).

arrange(flights, desc(is.na(dep_time)))

## # A tibble: 336,776 x 19
##     year month   day dep_ sche dep_ arr_ sche arr_ carr flig tail
##    <int> <int> <int> <int> <int> <dbl> <int> <int> <dbl> <chr> <int> <chr>
##  1  2013     1     1    NA  1630    NA    NA  1815    NA EV     4308 N181
##  2  2013     1     1    NA  1935    NA    NA  2240    NA AA      791 N3EH
##  3  2013     1     1    NA  1500    NA    NA  1825    NA AA     1925 N3EV
##  4  2013     1     1    NA   600    NA    NA   901    NA B6      125 N618
##  5  2013     1     2    NA  1540    NA    NA  1747    NA EV     4352 N105
##  6  2013     1     2    NA  1620    NA    NA  1746    NA EV     4406 N139
##  7  2013     1     2    NA  1355    NA    NA  1459    NA EV     4434 N105
##  8  2013     1     2    NA  1420    NA    NA  1644    NA EV     4935 N759
##  9  2013     1     2    NA  1321    NA    NA  1536    NA EV     3849 N135
## 10  2013     1     2    NA  1545    NA    NA  1910    NA AA      133 <NA> 
## # ... with 336,766 more rows, and 7 more variables: origin <chr>, dest
## #   <chr>, air_time <dbl>, distance <dbl>, hour <dbl>, minute <dbl>,
## #   time_hour <dttm>

Sort flights to find the most delayed flights. Find the flights that left earliest.

arrange(flights, desc(dep_delay))

## # A tibble: 336,776 x 19
##     year month   day dep_ sche dep_ arr_ sche arr_ carr flig tail
##    <int> <int> <int> <int> <int> <dbl> <int> <int> <dbl> <chr> <int> <chr>
##  1  2013     1     9   641   900  1301  1242  1530  1272 HA       51 N384
##  2  2013     6    15  1432  1935  1137  1607  2120  1127 MQ     3535 N504
##  3  2013     1    10  1121  1635  1126  1239  1810  1109 MQ     3695 N517
##  4  2013     9    20  1139  1845  1014  1457  2210  1007 AA      177 N338
##  5  2013     7    22   845  1600  1005  1044  1815   989 MQ     3075 N665
##  6  2013     4    10  1100  1900   960  1342  2211   931 DL     2391 N959
##  7  2013     3    17  2321   810   911   135  1020   915 DL     2119 N927
##  8  2013     6    27   959  1900   899  1236  2226   850 DL     2007 N376
##  9  2013     7    22  2257   759   898   121  1026   895 DL     2047 N671
## 10  2013    12     5   756  1700   896  1058  2020   878 AA      172 N5DM
## # ... with 336,766 more rows, and 7 more variables: origin <chr>, dest
## #   <chr>, air_time <dbl>, distance <dbl>, hour <dbl>, minute <dbl>,
## #   time_hour <dttm>

arrange(flights, dep_delay)

## # A tibble: 336,776 x 19
##     year month   day dep_t sched_ dep_d arr_ sched arr_d carr flig
##    <int> <int> <int>  <int>   <int>  <dbl> <int>  <int>  <dbl> <chr> <int>
##  1  2013    12     7   2040    2123  -43.0    40   2352  48.0  B6       97
##  2  2013     2     3   2022    2055  -33.0  2240   2338 -58.0  DL     1715
##  3  2013    11    10   1408    1440  -32.0  1549   1559 -10.0  EV     5713
##  4  2013     1    11   1900    1930  -30.0  2233   2243 -10.0  DL     1435
##  5  2013     1    29   1703    1730  -27.0  1947   1957 -10.0  F9      837
##  6  2013     8     9    729     755  -26.0  1002    955   7.00 MQ     3478
##  7  2013    10    23   1907    1932  -25.0  2143   2143   0    EV     4361
##  8  2013     3    30   2030    2055  -25.0  2213   2250 -37.0  MQ     4573
##  9  2013     3     2   1431    1455  -24.0  1601   1631 -30.0  9E     3318
## 10  2013     5     5    934     958  -24.0  1225   1309 -44.0  B6      375
## # ... with 336,766 more rows, and 8 more variables: tailnum <chr>, origin
## #   <chr>, dest <chr>, air_time <dbl>, distance <dbl>, hour <dbl>, minute
## #   <dbl>, time_hour <dttm>

Sort flights to find the fastest flights.

This depends how you define fastest flights. It could refer to the least amount of air_time:

arrange(flights, air_time)

## # A tibble: 336,776 x 19
##     year month   day dep_t sched_ dep_d arr_ sched arr_d carr flig
##    <int> <int> <int>  <int>   <int>  <dbl> <int>  <int>  <dbl> <chr> <int>
##  1  2013     1    16   1355    1315  40.0   1442   1411  31.0  EV     4368
##  2  2013     4    13    537     527  10.0    622    628 - 6.00 EV     4631
##  3  2013    12     6    922     851  31.0   1021    954  27.0  EV     4276
##  4  2013     2     3   2153    2129  24.0   2247   2224  23.0  EV     4619
##  5  2013     2     5   1303    1315 -12.0   1342   1411 -29.0  EV     4368
##  6  2013     2    12   2123    2130 - 7.00  2211   2225 -14.0  EV     4619
##  7  2013     3     2   1450    1500 -10.0   1547   1608 -21.0  US     2132
##  8  2013     3     8   2026    1935  51.0   2131   2056  35.0  9E     3650
##  9  2013     3    18   1456    1329  87.0   1533   1426  67.0  EV     4118
## 10  2013     3    19   2226    2145  41.0   2305   2246  19.0  EV     4276
## # ... with 336,766 more rows, and 8 more variables: tailnum <chr>, origin
## #   <chr>, dest <chr>, air_time <dbl>, distance <dbl>, hour <dbl>, minute
## #   <dbl>, time_hour <dttm>

Which flights travelled the longest? Which travelled the shortest?

If we assume this refers to distance travelled:

arrange(flights, desc(distance))

## # A tibble: 336,776 x 19
##     year month   day dep_t sched dep_de arr_ sche arr_de carr flig
##    <int> <int> <int>  <int>  <int>   <dbl> <int> <int>   <dbl> <chr> <int>
##  1  2013     1     1    857    900 -3.00e  1516  1530 -1.40e HA       51
##  2  2013     1     2    909    900  9.00e  1525  1530 -5.00e HA       51
##  3  2013     1     3    914    900  1.40e  1504  1530 -2.60e HA       51
##  4  2013     1     4    900    900  0       1516  1530 -1.40e HA       51
##  5  2013     1     5    858    900 -2.00e  1519  1530 -1.10e HA       51
##  6  2013     1     6   1019    900  7.90e  1558  1530  2.80e HA       51
##  7  2013     1     7   1042    900  1.02e  1620  1530  5.00e HA       51
##  8  2013     1     8    901    900  1.00e  1504  1530 -2.60e HA       51
##  9  2013     1     9    641    900  1.30e  1242  1530  1.27e HA       51
## 10  2013     1    10    859    900 -1.00e  1449  1530 -4.10e HA       51
## # ... with 336,766 more rows, and 8 more variables: tailnum <chr>, origin
## #   <chr>, dest <chr>, air_time <dbl>, distance <dbl>, hour <dbl>, minute
## #   <dbl>, time_hour <dttm>

The longest flight is from JFK to HNL (Honolulu) at 4983 miles.

arrange(flights, distance)

## # A tibble: 336,776 x 19
##     year month   day dep_t sched dep_de arr_ sche arr_de carr flig
##    <int> <int> <int>  <int>  <int>   <dbl> <int> <int>   <dbl> <chr> <int>
##  1  2013     7    27     NA    106   NA       NA   245   NA    US     1632
##  2  2013     1     3   2127   2129 -  2.00  2222  2224 -  2.00 EV     3833
##  3  2013     1     4   1240   1200   40.0   1333  1306   27.0  EV     4193
##  4  2013     1     4   1829   1615  134     1937  1721  136    EV     4502
##  5  2013     1     4   2128   2129 -  1.00  2218  2224 -  6.00 EV     4645
##  6  2013     1     5   1155   1200 -  5.00  1241  1306 - 25.0  EV     4193
##  7  2013     1     6   2125   2129 -  4.00  2224  2224    0    EV     4619
##  8  2013     1     7   2124   2129 -  5.00  2212  2224 - 12.0  EV     4619
##  9  2013     1     8   2127   2130 -  3.00  2304  2225   39.0  EV     4619
## 10  2013     1     9   2126   2129 -  3.00  2217  2224 -  7.00 EV     4619
## # ... with 336,766 more rows, and 8 more variables: tailnum <chr>, origin
## #   <chr>, dest <chr>, air_time <dbl>, distance <dbl>, hour <dbl>, minute
## #   <dbl>, time_hour <dttm>
…
